…
The following table counts the number of times each aisle is used in the
list of orders and orders them by most frequent to least frequent:

``` r
instacart %>% 
  count(aisle) %>% 
  arrange(desc(n))
```

    ## # A tibble: 134 × 2
    ##    aisle                              n
    ##    <chr>                          <int>
    ##  1 fresh vegetables              150609
    ##  2 fresh fruits                  150473
    ##  3 packaged vegetables fruits     78493
    ##  4 yogurt                         55240
    ##  5 packaged cheese                41699
    ##  6 water seltzer sparkling water  36617
    ##  7 milk                           32644
    ##  8 chips pretzels                 31269
    ##  9 soy lactosefree                26240
    ## 10 bread                          23635
    ## # … with 124 more rows
…
The following table counts the number of times each snowfall value is
used in the list of weather observations and orders them by most
frequent to least frequent:

``` r
ny_noaa %>% 
  count(snow) %>% 
  arrange(desc(n))
```

    ## # A tibble: 282 × 2
    ##     snow       n
    ##    <dbl>   <int>
    ##  1   0   2008508
    ##  2  NA    381221
    ##  3   2.5   31022
    ##  4   1.3   23095
    ##  5   5.1   18274
    ##  6   7.6   10173
    ##  7   0.8    9962
    ##  8   0.5    9748
    ##  9   3.8    9197
    ## 10   0.3    8790
    ## # … with 272 more rows
…
